Reference,Name,Author,Date,Link
1,Cycle Infrastructure Design; Local Transport Note 1/20 (LTN 1/20),DfT,2020,https://www.gov.uk/government/publications/cycle-infrastructure-design-ltn-120
1a,Expected cycling radius,S2.2.2,,https://assets.publishing.service.gov.uk/government/uploads/system/uploads/attachment_data/file/951074/cycle-infrastructure-design-ltn-1-20.pdf#page=18&zoom=auto,189,723
2,Gear change: a bold vision for cycling and walking,DfT,2020,https://www.gov.uk/government/publications/cycle-infrastructure-design-ltn-120
