Auth,Number,Who,Status,Consultation,Target,Press,CallIn,Link,Notes

,,,,,,,,,Triaged sort by consultation date
CBC,220600,TBC,triaged,20220408,20220512,,,https://www.colchester.gov.uk/planning-app-details/?id=d306e65c-a8a6-ec11-983f-000d3a65b39f ,TheLodgeOspreyClose
CBC,220639,TBC,triaged,20220408,20220505,,,https://www.colchester.gov.uk/planning-app-details/?id=b059b1bb-b0a6-ec11-983f-000d3a65b2bb ,52TurnerRd3Bed
CBC,220595,TBC,triaged,20220404,20220603,,,https://www.colchester.gov.uk/planning-app-details/?id=fb70ab4c-bea3-ec11-983f-000d3a65b39f ,SchoolLnLangham30

CBC,220635,TBC,triaged,20220331,20220505,,,https://www.colchester.gov.uk/planning-app-details/?id=66124f98-6fa0-ec11-b400-0022489cb8c8 ,42SmythiesAvBungalow
CBC,220526,TBC,triaged,20220329,20220527,,,https://www.colchester.gov.uk/planning-app-details/?id=0a63aa78-cc9e-ec11-b400-0022489d2050 ,67Braiswick27D

CBC,220692,TBC,triaged,,20220513,,,https://www.colchester.gov.uk/planning-app-details/?id=9207e65c-a8a6-ec11-983f-000d3a65b39f ,1aBoudiceaWayCycleCond
CBC,220662,TBC,triaged,,20220510,,,https://www.colchester.gov.uk/planning-app-details/?id=5ed9c601-16a5-ec11-983f-000d3a65b2bb ,41SchoolRdCopfordCycleCond
CBC,220593,TBC,triaged,,20220429,,,https://www.colchester.gov.uk/planning-app-details/?id=6fe009da-72a3-ec11-983f-000d3a65b433 ,67BraiswickConds

,,,,,,,,,Claimed sort by consultation date

,,,,,,,,,Responded sort by target date
CBC,220433,SM,claimed,20220317,20220519,,,https://colchester.cyclescape.org/threads/5643#message_91611 ,LayerRdMedicalCentre 210408Resub
CBC,220317,SM,responded,20220308,20220506,,,https://colchester.cyclescape.org/issues/4686-pa-220317-gametbearingshythestationroad ,GametBearingsHytheStationRoad
CBC,220192,WB,responded,20220225,20220425,,,https://www.cyclescape.org/issues/4683-pa-220192-220301-chesterwell-reserved-matters ,ChesterwellR13-5
CBC,220585,SM,responded,202220325,20220425,,,https://colchester.cyclescape.org/issues/4694-pa-220585-52bbournerd-0 ,52BBourneRd
CBC,220503,TBC,untriaged,20220325,20220420,,,https://www.colchester.gov.uk/planning-app-details/?id=fe248727-d69a-ec11-b400-000d3addb73a ,ChesterwellPlazaUnit1&3ChgUse
CBC,220451,SM,claimed,20220318,20220415,,,https://colchester.cyclescape.org/issues/4691-pa-220451-31victoriarddwelling ,31VictoriaRdDwelling
CBC,220411,SM,claimed,20220315,20220412,,,https://colchester.cyclescape.org/issues/4690-pa-220411-1londonrdmtey ,1LondonRdMTey
CBC,220360,SM,claimed,,20220407,,,https://colchester.cyclescape.org/threads/5836#message_91609 ,COOKStanePkTP
CBC,220556,SM,claimed,,20220406,,,https://colchester.cyclescape.org/issues/4689-pa-220556-nstationmdu ,NStationMDU
CBC,213524,SJ,responded,20220127,20220331,,,https://www.cyclescape.org/threads/6007#message_90378 ,17-26PrioryWalk20-28QueenSt
CBC,213530,SM,responded,20220127,20220331,,,https://colchester.cyclescape.org/issues/4650-pa-213530-peldonrdabberton50 ,PeldonRdAbberton50
CBC,220247,SM,responded,20220301,20220328,,,https://colchester.cyclescape.org/issues/4681-pa-220247-20sirisaacswalk ,20SirIsaacsWalk
CBC,220222,SM,responded,,20220324,,,https://colchester.cyclescape.org/threads/5836#message_91368 ,GreggsStaneParkTP
CBC,220235,SM,responded,20220303,20220324,,,https://colchester.cyclescape.org/issues/4682-pa-220235-220201-ewer-house ,44-46CrouchSt
CBC,220201,SM,responded,20220303,20220322,,,https://colchester.cyclescape.org/issues/4682-pa-220235-220201-ewer-house ,44-46CrouchStRoof
CBC,213388,SM,responded,20220111,20220322,,,https://colchester.cyclescape.org/threads/6016#message_90078 ,SeverallsCoop
CBC,212680,SM,claimed,20220221,20220324,,,https://colchester.cyclescape.org/issues/4670-pa-212680-81halsteadrdflats-01 ,81HalsteadRdFlats
CBC,213363,NC,responded,20220110,20220318,,,https://www.cyclescape.org/issues/4635-horkesley-a134-planning-application-https-www-ensembling-com-271650 ,GtHorks100
CBC,220155,SM,responded,20220214,20220317,,,https://colchester.cyclescape.org/issues/4665-pa-220147-220149-220155-220153-220154-greenstead-garages ,15ProsperoCloseGarages
CBC,220153,SM,responded,20220214,20220317,,,https://colchester.cyclescape.org/issues/4665-pa-220147-220149-220155-220153-220154-greenstead-garages ,1ProsperoCloseGarages
CBC,220154,SM,responded,20220214,20220317,,,https://colchester.cyclescape.org/issues/4665-pa-220147-220149-220155-220153-220154-greenstead-garages ,7-9ProsperoCloseGarages
CBC,220150,SM,responded,20220218,20220316,,,https://www.colchester.gov.uk/planning-app-details/?id=1aba6956-2b7d-ec11-8d21-000d3aba911c ,HedgeDrive3
CBC,220148,SM,responded,20220218,20220316,,,https://colchester.cyclescape.org/issues/4666-pa-220148-crosscottboxted7-01 ,CrossCottBoxted7
CBC,220147,SM,responded,20220218,20220316,,,https://colchester.cyclescape.org/issues/4665-pa-220147-220149-220155-220153-220154-greenstead-garages ,WheelerCloseGarages
CBC,220149,SM,responded,20220218,20220316,,,https://colchester.cyclescape.org/issues/4665-pa-220147-220149-220155-220153-220154-greenstead-garages ,VeronicaWalk3
CBC,220107,SM,responded,20220208,20220311,,,https://colchester.cyclescape.org/issues/4664-pa-220107-48wimpolerdhmo ,48WimpoleRdHMO
CBC,213526,WB,responded,20220125,20220310,,,https://www.cyclescape.org/threads/6036#message_90534 ,TrinitySchool
CBC,213382,SJ,responded,20220107,20220307,,,https://colchester.cyclescape.org/issues/4634-2-mixed-developments-on-priory-walk-and-long-wyre-street ,1822LongWyreSt
CBC,213385,SJ,responded,,20220204,,,https://colchester.cyclescape.org/issues/4634-2-mixed-developments-on-priory-walk-and-long-wyre-street ,1416LongWyreSt
CBC,213327,SM,responded,20220104,20220303,,,https://www.colchester.gov.uk/planning-app-details/?id=0ebf91af-0459-ec11-8f8f-000d3adf00cd ,ESNEFT-EOC-Extension
CBC,220137,--,duplicate,20220210,20220417,,,https://www.colchester.gov.uk/planning-app-details/?id=d61a1cae-dc79-ec11-8d21-0022489ca9e3 ,EOCConds2
CBC,220028,SM,responded,20220202,20220303,,requested,https://colchester.cyclescape.org/threads/5480#message_90748 ,202025Conds
CBC,211392,NC,responded,20210618,20220228,,req,https://colchester.cyclescape.org/issues/4460-layer-de-la-haye-planning-application-211392-211393 ,LdlHFolley55
CBC,211393,NC,responded,20210618,20220228,,,https://colchester.cyclescape.org/issues/4460-layer-de-la-haye-planning-application-211392-211393 ,LdlHFolley15
CBC,202829,SM,reconsult,20211221,20220225,paper,req,https://colchester.cyclescape.org/issues/4328-202829-development-of-102-dwellings-296-london-road ,LDR 
CBC,213531,SM,responded,20220127,20220223,,,https://colchester.cyclescape.org/issues/4651-pa-213531-borleyspeldonrdabberton ,BorleysPeldonRdAbberton

CBC,211510,SM,deferred,20211227,20220217,,,https://colchester.cyclescape.org/threads/5659#message_85492 ,ColneQuay
CBC,213487,SM,responded,,20220215,,,https://colchester.cyclescape.org/issues/4640-pa-213487-baldwin-sfrmhouse ,Baldwin-sFrmHouse
CBC,213431,SM,responded,20220112,20220208,,,https://colchester.cyclescape.org/issues/4637-pa-213431-25trinityst ,25TrinitySt
CBC,213406,SM,responded,20220113,20220207,,,https://colchester.cyclescape.org/issues/4638-pa-213406-smithwattsipsrd ,SmithWattsIpsRd
CBC,213047,NC,responded,20211201,20220201,,,https://colchester.cyclescape.org/issues/4618-pa_213047-west-of-lakelands ,LakelandsWest225
ECC,CC/COL/106/21,WB,responded,20210128,,,,https://colchester.cyclescape.org/issues/4630-pa_cc-col-106-21_boxted-bridge ,BoxtedBridge
CBC,213108,SM,responded,20211224,20220128,,,https://www.colchester.gov.uk/planning-app-details/?id=3244c3f7-5554-ec11-8c62-0022489ba0ae ,6MarloweWay
CBC,213307,SM,responded,20220104,20220126,,,https://www.colchester.gov.uk/planning-app-details/?id=905d335a-2258-ec11-8f8f-000d3adf09c2 ,ShrubEndPS
CBC,212967,NC,responded,20211125,20220125,,,https://colchester.cyclescape.org/issues/4601-lodge-lane ,LodgeLane3
CBC,213303,TBC,triaged,20211229,20220125,,,https://www.colchester.gov.uk/planning-app-details/?id=ee5fadf6-1958-ec11-8f8f-000d3adf0002 ,RowhedgeWharfcond
CBC,213244,SM,responded,20211218,20220120,,,https://www.colchester.gov.uk/planning-app-details/?id=6ef2640d-1851-ec11-8c62-0022489ba0ae ,Wy600TempAccess
CBC,213225,SM,responded,20211216,20220114,,,https://colchester.cyclescape.org/threads/5855#message_89516 ,DarcyCycleParking2 c.f. 212163
CBC,213197,SM,responded,20211213,20220113,,,https://colchester.cyclescape.org/issues/4624-pa_213197_34bmerseardflatconv ,34bMerseaRdFlatconv
CBC,213165,SM,responded,20211209,20220110,,,https://colchester.cyclescape.org/threads/5990#message_89396 ,51JohnKentAvenue
CBC,213148,SM,responded,202101207,20220107,,,https://colchester.cyclescape.org/threads/5989#message_89395 ,HalRdEAGTP
CBC,212931,SM,responded,20211202,20220106,,,https://colchester.cyclescape.org/issues/4612-pa_212931_godboltfarm5 ,GodboltFarm5
CBC,213130,NC,responded,20211206,20220105,,,https://colchester.cyclescape.org/issues/4617-pa_213130-park-lane-business-centre-langham ,ParkLaneBusCen
CBC,213164,SM,responded,20211206,20220104,,,https://colchester.cyclescape.org/threads/5988#message_89394 ,MercuryTP
CBC,213003,SM,responded,20211129,20211231,,,https://colchester.cyclescape.org/issues/4610-pa_213003_littleglebesl ,LittleGlebeSL
CBC,213086,SM,responded,20211201,20211231,,,https://colchester.cyclescape.org/issues/4611-pa_213086_copford7 ,Copford7
CBC,213991,SM,responded,20211126,20211229,,,https://colchester.cyclescape.org/issues/4605-colliersfrmcotta133 ,ColliersFrmCottA133
CBC,212990,SM,responded,20211129,20211227,,,https://colchester.cyclescape.org/issues/4609-pa_212989-212990_homefrmcotta133 ,HomeFrmCottA133
CBC,212989,SM,responded,20211129,20211227,,,https://colchester.cyclescape.org/issues/4609-pa_212989-212990_homefrmcotta133 ,HomeFrmCottA133
CBC,212646,SM,responded,20211101,20211224,,,https://colchester.cyclescape.org/issues/4579-pa_212646_newbarnrdgttey30 ,NewbarnRdGtTey30 (response not appeared yet)
CBC,212968,SM,responded,20211124,20211221,,,https://colchester.cyclescape.org/issues/4604-pa_212968_28inglisrdhmo ,28InglisRdHMO
CBC,212609,SM,responded,20211022,20211220,,,https://colchester.cyclescape.org/threads/5915#message_88138 ,WyvernFrm301
CBC,212943,SM,responded,20211124,20211220,,,https://colchester.cyclescape.org/issues/4606-pa_212943_villardclasse ,VillaRdClassE
CBC,212888,SM,reconsult,20220303,20211215,,,https://colchester.cyclescape.org/issues/4592-pa_212888_7-15marloweway ,7-15MarloweWay
CBC,212507,NC,responded,20211019,20211208,Paper,,https://colchester.cyclescape.org/issues/4559-pa_212507_wyvernfrm600 ,WyvernFrm600
CBC,212812,SM,responded,20211109,20211207,,,https://colchester.cyclescape.org/issues/4589-pa_212812_birchhs ,BirchHs - parking
CBC,212748,TBC,passed,20210929,20211202,,,https://colchester.cyclescape.org/issues/4578-pa_212590_fingthebarn ,FingHs
CBC,212749,SM,responded,20211105,20211201,,,https://colchester.cyclescape.org/issues/4586-pa_212749_hospyttscauswayholhomes ,HospyttsCauswayHolHomes
CBC,212590,SM,responded,20211028,20211201,,,https://colchester.cyclescape.org/issues/4578-pa_212590_fingthebarn ,FingTheBarn
CBC,212247,SM,responded,20211006,20211130,,,https://colchester.cyclescape.org/issues/4515-pa_202349-202161-202321-202001 ,AmbroseHs-semivertical parking- 202349 cond
CBC,212246,SM,responded,20211006,20211130,,,https://colchester.cyclescape.org/issues/4515-pa_202349-202161-202321-202001,AnchorHs-semivertical parking- 202161 cond
CBC,212245,SM,responded,20211006,20211130,,,https://colchester.cyclescape.org/issues/4515-pa_202349-202161-202321-202001 ,ReverdyHs-semivertical parking- 202321 cond
CBC,212244,SM,responded,20211006,20211130,,,https://colchester.cyclescape.org/issues/4515-pa_202349-202161-202321-202001 ,AmbroseHs-semivertical parking- 202001 cond
CBC,212724,SM,responded,20211105,20211129,,,https://colchester.cyclescape.org/issues/4585-pa_212724_albertst9 ,AlbertSt9
CBC,211926,SM,responded,20210812,20211126,,,https://colchester.cyclescape.org/issues/4497-pa_211926_sussexflat ,SussexFlat
CBC,212338,SM,reconsult,20211109,20211125,,,https://colchester.cyclescape.org/issues/4536-pa_212338_16wbc ,16WBC - parking
CBC,212689,SM,responded,20211022,20211125,,,https://colchester.cyclescape.org/issues/4563-pa_212689_22valdrive ,22ValDrive - parking
CBC,211788,WB,deferred,20210809,20220120,,,https://colchester.cyclescape.org/issues/4501-plan-for-commercial-park ,OldLondonRd - resub 202373
CBC,212198,SM,responded,20211105,20220114,,,https://colchester.cyclescape.org/issues/4513-pa_212198_79magdalenstflats ,79MagdalenStFlats - parking
CBC,212385,SM,responded,20211007,20211110,,,https://colchester.cyclescape.org/issues/4548-pa_212385_78nsr ,78NSR - parking
CBC,211035,SM,responded,20211103,20211109,,,https://colchester.cyclescape.org/issues/4427-211035_ghclinic ,GH Medical Clinic parking
CBC,212657,SM,responded,20211020,20211108,,,https://colchester.cyclescape.org/issues/4562-pa_212657_25creffield ,25Creffield - retro parking
CBC,212540,SM,responded,20211018,20211108,,,https://colchester.cyclescape.org/issues/4561-pa_212540_blueowlgthorks ,BlueOwlGtHorks - parking
CBC,212541,SM,responded,,,,,,ListBlueOwlHorks - parking
CBC,212027,SM,responded,20210824,20211105,,,https://colchester.cyclescape.org/issues/4505-pa_212027_kwikfirconv ,KwikFitconv - site plan and location plan the same
CBC,212294,SM,responded,20210909,20211105,,,https://colchester.cyclescape.org/issues/4516-pa_212294_standavbungalow ,StAndAvBungalow - parking
CBC,212508,SM,responded,20211013,20211103,,,https://colchester.cyclescape.org/threads/5909#message_88049 ,SeverallsHways
CBC,212490,SM,responded,20211013,20211103,,,https://colchester.cyclescape.org/issues/4556-pa_212490_copford6hses ,Copford6Hses
CBC,211499,SM,responded,20210624,20211102,,,https://colchester.cyclescape.org/issues/4473-211499_barrackst ,BarrackStconv parking
CBC,212479,SM,responded,20211012,20211101,,,https://colchester.cyclescape.org/issues/4555-pa_212479_mtroofconv ,MTroofconv
CBC,212473,SM,responded,20211012,20211101,,,https://colchester.cyclescape.org/issues/4554-pa_212473_63highst ,63HighSt
CBC,212454,SM,responded,,20211029,,,https://colchester.cyclescape.org/threads/5871#message_87623 ,GosbecksFarm - parking
CBC,212418,SM,responded,20210922,20211027,,,https://colchester.cyclescape.org/issues/4526-pa_212418_tilehouse4hses ,TileHouse4Hses - parking
CBC,211185,SM,responded,20211013,20211027,,,https://colchester.cyclescape.org/issues/4445-211185_jasmine-boxtedrd ,Jasmine: Boxted Rd. (parking)
CBC,212350,SM,responded,20210918,20211026,,,https://colchester.cyclescape.org/issues/4518-pa_212350_norfolknsr ,NorfolkNSR
CBC,212079,SM,responded,20210826,20210920,,,https://colchester.cyclescape.org/issues/4508-pa_212079_willowsrear ,WillowsRear
CBC,212077,SM,responded,20210826,20210920,,,https://colchester.cyclescape.org/threads/5841#message_87111 ,MarksTeyHotel - cycle parking cond of 181137
CBC,211725,SM,responded,20210826,20210919,,,https://colchester.cyclescape.org/issues/4506-pa_211725_cannockmillhouseconv ,CannockMillHouseconv - further to 150493 and 150492
CBC,211919,SM,responded,20210826,20210917,,,https://colchester.cyclescape.org/threads/5836#message_86893 ,StanePkConds
CBC,211610,SM,responded,20210723,20210906,Paper,req,https://colchester.cyclescape.org/threads/5760#message_85919 ,TollgateVillage
CBC,211407,SM,responded,20210616,20210720,,,https://colchester.cyclescape.org/issues/4463-211407_17eastst ,17EastStreet
CBC,210778,SM,responded,20210416,20210518,,,https://colchester.cyclescape.org/threads/5691#message_83424 ,Northern Gateway Sports hub Travel Plan

,,,,,,,,,This Week's Planning Committee

,,,,,,,,,Observations sort by decision date
CBC,210364,WB,observations,20210215,20210305,,,https://colchester.cyclescape.org/threads/5655#message_82273 ,Wormingford HGVs

,,,,,,,,,Conditional sort by decision date
CBC,213463,TH,conditional,20220113,20220214,,,https://colchester.cyclescape.org/issues/4639-pa-213463-unsworthjosephshmoconv ,UnsworthJosephsHMOconv
CBC,213138,SM,conditional,20211202,20220126,,,https://colchester.cyclescape.org/issues/4613-pa_213138_1aboudiceaway ,1aBoudiceaWay
CBC,212810,SM,conditional,20211111,20220120,,,https://colchester.cyclescape.org/issues/4590-pa_212810_paxman ,Paxman
CBC,212019,SM,conditional,20211008,20220106,,,https://colchester.cyclescape.org/threads/5836#message_87110 ,StaneParkMezzanines - Transport note missing
CBC,212804,SM,conditional,20211102,20211209,,,https://colchester.cyclescape.org/issues/4584-pa_212804_oldrugbyclub ,OldRugbyClub
CBC,212506,SM,conditional,20211013,20211209,,,https://colchester.cyclescape.org/issues/4557-pa_212506_chesterwelldaynursery ,ChesterwellDayNursery
ECC,CC/TEN/31/21,TBC,conditional,20210919,20211101,,,https://colchester.cyclescape.org/threads/5296#message_84179 ,A120-A133 link road
CBC,202025,SM,conditional,20210730,20210930,paper,,https://colchester.cyclescape.org/issues/4255-planning-application-202025 ,BHR
CBC,212055,SM,conditional,20210830,20210930,,,https://colchester.cyclescape.org/issues/4527-pa_212055_ppsecurecyclepark ,PPSecureCyclePark
CBC,210797,SM,conditional,20210422,20210930,,,https://colchester.cyclescape.org/issues/4397-210797-headgate-building ,Headgate bldg. conv.
CBC,212192,SM,conditional,20210903,20210929,,,https://colchester.cyclescape.org/issues/4512-pa_212192_headgatedwp ,HeadgateDWP - parking
CBC,210986,SM,conditional,20210630,20210923,,,https://colchester.cyclescape.org/issues/4423-210986-hawkins-road ,Hawkins Rd. flat conv
CBC,210608,SJ,conditional,20210405,20210917,,,https://colchester.cyclescape.org/issues/4373-210608 ,Haven Road Gym conv.
CBC,211171,SM,conditional,20210518,20210910,,,https://colchester.cyclescape.org/issues/4431-pa_211171_hythehill ,Hythe Hill dwelling (parking)
CBC,210878,SM,conditional,20210513,20210908,,,https://colchester.cyclescape.org/issues/4426-210878-dedham-heath-conversion ,D Hth cnv parking
CBC,210648,WB,conditional,20210409,20210825,,,https://colchester.cyclescape.org/issues/4387-210648-nayland-boxted-rd ,Nayland/Boxted Road plot Boxted Rd access separate application
CBC,210983,SM,conditional,20210511,20210804,,,https://colchester.cyclescape.org/issues/4424-210983-172-mill-road ,172 Mill Rd parking
CBC,211654,SM,conditional,20210701,20210729,,,https://colchester.cyclescape.org/threads/5757#message_85667 ,RiversideCentre-resubmission
CBC,190665,WB,conditional,,20210729,,,https://colchester.cyclescape.org/issues/4337-northern-gateway-plots-9-10-11 ,CNG9-10-11
CBC,211329,SM,conditional,20210611,20210715,,,https://colchester.cyclescape.org/issues/4450-211329_langham3no ,LanghamBungalowDem
CBC,202771,WB,conditional,20210122,20210622,,,https://colchester.cyclescape.org/issues/4391-202771-turner-rise-mcd ,Turner Rise McD
CBC,210763,SM,conditional,20210423,20210617,,,https://colchester.cyclescape.org/threads/5637#message_83426 ,ESNEFT Orthopaedic Centre building (not NAR access)
CBC,211058,SM,conditional,20210520,20210616,,,https://colchester.cyclescape.org/issues/4432-211058_marethrd ,Mareth Rd houses (parking)
CBC,210935,SM,conditional,20210428,20210527,,,https://colchester.cyclescape.org/issues/4414-210935-stanway-community-centre ,Stanway Community Centre (resub) informative:crossing
CBC,210635,SJ,conditional,20210401,20210518,,,https://colchester.cyclescape.org/issues/4385-210635-hythe-house ,Hythe Hill office conv.
CBC,210303,WB,conditional,20210304,20210401,,,https://colchester.cyclescape.org/issues/4359-210303 ,Temp. Trin. sch.

,,,,,,,,,Refused sort by decision date
CBC,212451,SM,resfused,20211006,20211029,,,https://colchester.cyclescape.org/issues/4547-pa_212451_56milrd ,56MilRd - parking
CBC,212163,SM,resfused,20210903,20210923,,,https://colchester.cyclescape.org/issues/4511-pa_212163_darcycycleparking ,DArcyCycleParking
CBC,212257,SM,resfused,20210910,20210920,,,https://colchester.cyclescape.org/issues/4517-pa_212257_wberg-shedparking ,WBerg-shedparking
CBC,212100,SM,refused,20210818,20210906,,,https://colchester.cyclescape.org/issues/4498-pa_212100_priorystconv ,PrioryStconv
CBC,191581,SM,refused,20190815,20210921,,,https://colchester.cyclescape.org/threads/5636 ,BartCt
CBC,200910,WB,refused,20200612,20200819,,,https://colchester.cyclescape.org/issues/4415-200910-old-odeon ,Old Odeon
CBC,210516,WB,success,20210331,20210730,paper,,https://colchester.cyclescape.org/issues/4371-210516 ,ASDA ClickCollect
CBC,211335,SM,refused,20210611,20210729,,,https://colchester.cyclescape.org/issues/4451-211335_wb-holt ,BradbrookWBergholt-prev_refused_210196-parking
CBC,211117,SM,refused,20210513,20210709,,,https://colchester.cyclescape.org/issues/4425-211117-highfield-drive ,Highfield Dr parking
CBC,211253,SM,refused,20210602,20210629,,,https://www.cyclescape.org/issues/4447-211253_fordhamhth ,FordhamHth parking
CBC,210753,SM,refused,20210427,20210531,,,https://colchester.cyclescape.org/issues/4398-210753-1b-house ,1 Bed House - parking

,,,,,,,,,Withdrawn sort by decision date
CBC,212432,TBC,withdrawn,20211026,20211023,,,https://www.colchester.gov.uk/planning-app-details/?id=1e280049-bd25-ec11-b6e5-000d3ab624b9 ,14TrinSt - parking
CBC,212433,TBC,withdrawn,,,,,,14TrinSt - parking
CBC,211722,TBC,withdrawn,20210723,20210818,,,https://www.colchester.gov.uk/planning-app-details/?id=e3ac83ef-1cdb-eb11-bacb-000d3addcbcb ,NorfolkNSR
CBC,210408,SJ,withdrawn,20210318,20210702,,,https://colchester.cyclescape.org/issues/4360-210408 ,Layer Rd. Medical Centre
CBC,211157,--,withdrawn,20210515,20210527,,,https://www.colchester.gov.uk/planning-app-details/?id=aaa64908-33a4-eb11-b1ac-000d3adaf8f2#ValidationSummaryEntityFormView ,Riverside Centre 
CBC,211236,SM,withdrawn,20210522,202100602,,,https://colchester.cyclescape.org/issues/4442-211236_riversidecentre ,Riverside Centre

,,,,,,,,,Approved sort by decision date
CBC,211987,PA,approved,20211103,20220118,,,https://colchester.cyclescape.org/threads/5523#message_87112 ,RTS-NAR
CBC,212291,SM,approved,,20211005,,,https://colchester.cyclescape.org/threads/5853#message_87314 ,IntlHsPeartreeRd - parking
CBC,212190,SM,approved,20210903,20210927,,,https://colchester.cyclescape.org/threads/5690#message_87320 ,TRMcDoParking - 212771 condition
CBC,210973,SM,approved,20210511,20210727,,,https://www.cyclescape.org/threads/5525#message_84153 ,Homebase/Lidl TP
CBC,211828,TBC,approved,,20210723,,,https://www.colchester.gov.uk/planning-app-details/?id=16dddf22-c7e0-eb11-bacb-000d3aba4c9f ,ParkRoad-ParkingAccess
CBC,211435,SM,approved,,20210715,,,https://colchester.cyclescape.org/threads/5783#message_85166 ,HilcroftBraiswick garage as cycle parking
CBC,210685,SM,approved,,20210521,,,https://colchester.cyclescape.org/issues/4386-210685-tollgate-village-dz3 ,Toll V DZ3 parking

.,$s/\(^[^,]*,[^,]*,\)\(.*\)\(,[^,]*$\)/\1TBC,triaged,,,,\3
